<?xml version="1.0" encoding="utf-8"?>
<!-- Generator: Adobe Illustrator 23.0.0, SVG Export Plug-In . SVG Version: 6.00 Build 0)  -->
<svg version="1.1" id="Capa_1" xmlns="http://www.w3.org/2000/svg" xmlns:xlink="http://www.w3.org/1999/xlink" x="0px" y="0px"
	 viewBox="0 0 512 512" style="enable-background:new 0 0 512 512;" xml:space="preserve">
<g>
	<g>
		<path d="M493.5,4.7c-3.2-4.5-9.4-5.6-13.9-2.5c-4.5,3.2-5.6,9.4-2.5,13.9c3.2,4.5,9.4,5.6,13.9,2.5
			C495.6,15.4,496.7,9.2,493.5,4.7z"/>
	</g>
</g>
<g>
	<g>
		<path d="M491.1,322.4c-4.5-3.2-10.8-2.1-13.9,2.5c-3.2,4.5-2.1,10.8,2.5,13.9c4.5,3.2,10.8,2.1,13.9-2.5
			C496.7,331.8,495.6,325.6,491.1,322.4z"/>
	</g>
</g>
<g>
	<g>
		<path d="M32.4,2.2C27.9-1,21.6,0.2,18.5,4.7c-3.2,4.5-2.1,10.8,2.5,13.9c4.5,3.2,10.8,2.1,13.9-2.5C38,11.6,36.9,5.4,32.4,2.2z"/>
	</g>
</g>
<g>
	<g>
		<path d="M34.8,324.9c-3.2-4.5-9.4-5.6-13.9-2.5c-4.5,3.2-5.6,9.4-2.5,13.9c3.2,4.5,9.4,5.6,13.9,2.5
			C36.9,335.6,38,329.4,34.8,324.9z"/>
	</g>
</g>
<g>
	<g>
		<path d="M369.4,43.3c-17.6-15.8-37.8-27.5-60.2-34.8c-23.3-7.7-47.7-10.2-72.6-7.4c-36.2,4-71,20.4-98,46.1
			c-27,25.7-45,59.7-50.6,95.7c-5,31.8-1.1,64,11.1,93c11.7,27.7,30.7,52,54.9,70.1c7.4,5.6,11.9,14.4,11.9,23.7V356v65.1
			c0,13.8,9.1,25.5,21.5,29.4c1.9,15.4,8.8,29.8,20,40.9c13.2,13.2,30.8,20.5,49.5,20.5c36,0,65.7-27.3,69.6-62.2
			c11.4-4.6,19.4-15.8,19.4-28.6V356v-26.3c0-9.3,4.4-18.1,11.8-23.7c20.7-15.5,37.9-35.8,49.6-58.7c12.3-24.1,18.6-50.1,18.6-77.3
			C426,121.7,405.4,75.6,369.4,43.3z M257,492c-13.4,0-25.9-5.2-35.4-14.6c-7-7-11.7-15.8-13.6-25.4h98
			C301.3,474.8,281.1,492,257,492z M326,421.2c0,5.6-4.3,10.3-9.9,10.8c0,0-0.1,0-0.1,0c-0.3,0-0.6,0-0.9,0H196.9
			c-6,0-10.9-4.9-10.9-10.9V409h0h140L326,421.2L326,421.2z M326,389H186v-23h30h80h30L326,389L326,389z M256,216.5
			c10.3,0,20.6-2.4,30-7.1V346h-60V209.4C235.4,214.2,245.7,216.5,256,216.5z M228.4,187.5l27.6-55.2l27.6,55.2
			C267.2,199.6,244.8,199.6,228.4,187.5z M345.8,290c-12.4,9.3-19.8,24.1-19.8,39.7V346h-20V190c0-0.4,0-0.7-0.1-1.1
			c0-0.1,0-0.2,0-0.3c0-0.3-0.1-0.5-0.1-0.8c0-0.1-0.1-0.2-0.1-0.3c-0.1-0.3-0.1-0.5-0.2-0.7c0-0.1-0.1-0.2-0.1-0.3
			c-0.1-0.3-0.2-0.5-0.3-0.8c0-0.1,0-0.1-0.1-0.2l-0.1-0.1c0,0,0,0,0,0l-39.9-79.8c-1.7-3.4-5.2-5.5-8.9-5.5c-3.8,0-7.3,2.1-8.9,5.5
			l-39.9,79.8c0,0,0,0,0,0l-0.1,0.1c0,0.1,0,0.1-0.1,0.2c-0.1,0.3-0.2,0.5-0.3,0.8c0,0.1-0.1,0.2-0.1,0.3c-0.1,0.2-0.2,0.5-0.2,0.7
			c0,0.1-0.1,0.2-0.1,0.3c-0.1,0.3-0.1,0.5-0.1,0.8c0,0.1,0,0.2,0,0.3c0,0.4-0.1,0.7-0.1,1.1v156h-20v-16.3
			c0-15.6-7.4-30.4-19.9-39.7c-44.6-33.4-66.9-88.6-58.3-144C118,80.8,173.1,28.2,238.8,21c43.4-4.8,85,8.4,117.2,37.3
			c31.8,28.4,50,69.2,50,111.8C406,217.6,384,261.4,345.8,290z"/>
	</g>
</g>
<g>
	<g>
		<path d="M342.7,73.1c-4.1-3.7-10.4-3.3-14.1,0.8s-3.3,10.4,0.8,14.1c23.3,20.9,36.7,50.8,36.7,82c0,5.5,4.5,10,10,10s10-4.5,10-10
			C386,133.1,370.2,97.8,342.7,73.1z"/>
	</g>
</g>
<g>
	<g>
		<path d="M56,160H10c-5.5,0-10,4.5-10,10s4.5,10,10,10h46c5.5,0,10-4.5,10-10C66,164.5,61.5,160,56,160z"/>
	</g>
</g>
<g>
	<g>
		<path d="M502,160h-46c-5.5,0-10,4.5-10,10s4.5,10,10,10h46c5.5,0,10-4.5,10-10S507.5,160,502,160z"/>
	</g>
</g>
<g>
	<g>
		<path d="M100.4,279c-3.2-4.5-9.4-5.6-13.9-2.5l-32.8,22.9c-4.5,3.2-5.6,9.4-2.5,13.9c1.9,2.8,5,4.3,8.2,4.3c2,0,4-0.6,5.7-1.8
			l32.8-22.9C102.4,289.7,103.5,283.5,100.4,279z"/>
	</g>
</g>
<g>
	<g>
		<path d="M460.8,26.6c-3.2-4.5-9.4-5.6-13.9-2.5l-32.8,22.9c-4.5,3.2-5.6,9.4-2.5,13.9c1.9,2.8,5,4.3,8.2,4.3c2,0,4-0.6,5.7-1.8
			l32.8-22.9C462.9,37.4,464,31.1,460.8,26.6z"/>
	</g>
</g>
<g>
	<g>
		<path d="M97.9,47.1L65.1,24.2c-4.5-3.2-10.8-2.1-13.9,2.5s-2.1,10.8,2.5,13.9l32.8,22.9c1.7,1.2,3.7,1.8,5.7,1.8
			c3.2,0,6.3-1.5,8.2-4.3C103.5,56.5,102.4,50.3,97.9,47.1z"/>
	</g>
</g>
<g>
	<g>
		<path d="M458.3,299.5l-32.8-22.9c-4.5-3.2-10.8-2.1-13.9,2.5c-3.2,4.5-2.1,10.8,2.5,13.9l32.8,22.9c1.7,1.2,3.7,1.8,5.7,1.8
			c3.2,0,6.3-1.5,8.2-4.3C464,308.9,462.9,302.6,458.3,299.5z"/>
	</g>
</g>
</svg>
